{
  "response": {  
  "application_response_code": "100",  
  "application_response_text": "listings returned for one unambiguous location",  
  "attribution": {  
    "img_height": 22,  
    "img_url": "https://resources.nestimg.com/nestoria/img/pbr_v1.png",  
    "img_width": 183,  
    "link_to_img": "http://www.nestoria.com"  
  },  
  "created_http": "Mon, 11 Nov 2019 16:06:40 GMT",  
  "created_unix": 1573488400,  
  "link_to_url": "https://www.nestoria.co.uk/brighton/property/buy",  
  "listings": [  
    {  
      "bathroom_number": "",  
      "bedroom_number": 3,  
      "car_spaces": "",  
      "commission": 0,  
      "construction_year": 0,  
      "datasource_name": "Home.co.uk",  
      "img_height": 300,  
      "img_url": "https://imgs.nestimg.com/semi_detached_house_112626994118743775.jpg",  
      "img_width": 400,  
      "keywords": "Garden, Semi-Detached, Double Bedroom, Garage, Kitchen",  
      "latitude": 50.859941,  
      "lister_name": "Spencer & Leigh",  
      "lister_url": "https://www.nestoria.co.uk/detail/0000000112626994118743775/title/5/1-1?serpUid=&pt=1&ot=1&l=brighton&did=85_default&t_sec=9&t_or=45&t_pvid=null&utm_source=api&utm_medium=external",  
      "listing_type": "buy",  
      "location_accuracy": 10,  
      "longitude": -0.137166,  
      "price": 400000,  
      "price_currency": "£",  
      "price_formatted": "£400,000",  
      "price_high": 400000,  
      "price_low": 400000,  
      "price_type": "fixed",  
      "property_type": "house",  
      "size": 0,  
      "size_type": "net",  
      "summary": "Guide price 400,000 425,000set back from the road with a lawn front...",  
      "thumb_height": 60,  
      "thumb_url": "https://imgs.nestimg.com/medium/semi_detached_house_112626994118743775.jpg",  
      "thumb_width": 80,  
      "title": "Wilmington Way, Patcham, Brighton",  
      "updated_in_days": 1,  
      "updated_in_days_formatted": "New"  
    } 
  ],  
  "locations": [  
    {  
      "center_lat": 50.854603,  
      "center_long": -0.132899,  
      "long_title": "Brighton",  
      "place_name": "brighton",  
      "title": "Brighton"  
    }  
  ],  
  "page": 1,  
  "sort": "nestoria_rank",  
  "status_code": "200",  
  "status_text": "OK",  
  "thanks": "For using the Nestoria API.",  
  "total_pages": 151,  
  "total_results": 3016,  
  "_cu5t0mP434m_": "remove"  
}  
}  